<svg width="112" height="24" viewBox="0 0 112 24" fill="none" xmlns="http://www.w3.org/2000/svg">
<g clip-path="url(#clip0_457_1287)">
<path d="M37.8123 8.62891L34.2436 16.7202H33.2436L29.6738 8.62891H30.6738L33.7478 15.5896L36.81 8.62891H37.8123ZM39.0789 8.62891H39.9976L43.0007 14.2705L46.0049 8.62891H46.9236V16.7202H46.0049V10.6076L43.0014 16.2491L39.9983 10.6076V16.7202H39.0796L39.0789 8.62891ZM48.0901 10.6311H49.0323L50.5516 15.5422L52.2123 10.6311H52.9776L54.6385 15.5422L56.1578 10.6311H57.1L55.0507 16.72H54.2145L52.6009 11.8558L50.9638 16.72H50.1276L48.0901 10.6311ZM62.03 11.1787C62.4672 11.6858 62.6927 12.3415 62.66 13.0102V16.7202H61.7767V15.7662C61.5575 16.1182 61.2403 16.3986 60.864 16.5729C60.4813 16.7622 60.0602 16.861 59.6332 16.8618C59.0525 16.8858 58.4831 16.6974 58.0314 16.3318C57.8267 16.1592 57.6642 15.9422 57.556 15.6972C57.4479 15.4523 57.3971 15.186 57.4074 14.9185C57.4023 14.5418 57.5156 14.1731 57.7312 13.8642C57.9516 13.5505 58.2527 13.3023 58.6027 13.1458C58.9778 12.9749 59.3859 12.8885 59.798 12.8927C60.4711 12.903 61.1383 13.0182 61.7758 13.2342V13.0102C61.7899 12.5621 61.6572 12.1216 61.3981 11.7558C61.1462 11.4143 60.7222 11.2439 60.1261 11.2447C59.8392 11.2468 59.5546 11.2965 59.2841 11.3918C58.9627 11.5051 58.6498 11.6409 58.3476 11.7982L57.9945 11.0798C58.669 10.716 59.419 10.5144 60.1849 10.4909C60.9953 10.4896 61.6106 10.7185 62.0307 11.1778L62.03 11.1787ZM61.0301 15.7485C61.2116 15.6512 61.3715 15.5181 61.5001 15.3572C61.6286 15.1962 61.7231 15.0108 61.7778 14.8122V13.8818C61.1794 13.7167 60.5614 13.6335 59.9407 13.6345C59.5184 13.622 59.1033 13.7459 58.7569 13.9878C58.6071 14.0842 58.4838 14.2167 58.3984 14.373C58.313 14.5294 58.2682 14.7047 58.268 14.8829C58.2624 15.0532 58.2987 15.2222 58.3736 15.3752C58.4486 15.5282 58.56 15.6604 58.6981 15.7602C59.0151 15.9858 59.3981 16.0998 59.7869 16.0842C60.2237 16.085 60.6527 15.9691 61.0296 15.7485H61.0301ZM66.0856 10.8489C66.5321 10.6019 67.0362 10.4779 67.5463 10.4898V11.2789C67.1255 11.2714 66.7085 11.3601 66.3272 11.538C65.9865 11.6967 65.6972 11.9476 65.4918 12.2622C65.2905 12.5766 65.1861 12.9432 65.1916 13.3165V16.7202H64.3081V10.6311H65.1916V11.8207C65.3758 11.4081 65.6897 11.0668 66.0856 10.8489ZM72.0652 15.8605C72.3776 15.7527 72.6615 15.5756 72.8956 15.3422L73.4374 15.92C73.1339 16.231 72.7606 16.4652 72.3485 16.6031C71.9141 16.7696 71.4535 16.8573 70.9883 16.8622C70.4539 16.8642 69.929 16.7218 69.4689 16.45C68.9959 16.1734 68.604 15.7774 68.3323 15.3016C68.0435 14.8027 67.895 14.2351 67.9025 13.6587C67.8962 13.0948 68.0361 12.5388 68.3087 12.0451C68.5652 11.5733 68.9434 11.1788 69.404 10.9027C69.8568 10.6291 70.3762 10.4859 70.9052 10.4889C71.3097 10.4687 71.7132 10.5446 72.0827 10.7105C72.4522 10.8763 72.7771 11.1273 73.0309 11.4429C73.5373 12.0789 73.7906 12.9348 73.7907 14.0105H68.8087C68.8514 14.5722 69.0961 15.0994 69.4976 15.4945C69.6929 15.6847 69.9243 15.8338 70.1782 15.933C70.4321 16.0323 70.7033 16.0796 70.9758 16.0722C71.349 16.07 71.7184 15.9982 72.0652 15.8605ZM69.5272 11.8147C69.1289 12.1828 68.8778 12.683 68.8205 13.2222H72.9192C72.8815 12.6993 72.6704 12.2039 72.3192 11.8147C72.1403 11.6332 71.9251 11.4917 71.6876 11.3994C71.4501 11.307 71.1958 11.266 70.9414 11.2789C70.4185 11.2684 69.9118 11.4603 69.5272 11.8147ZM80.5038 9.50046H77.7834V8.62891H84.1432V9.50046H81.4227V16.7202H80.5038V9.50046ZM88.3314 11.1778C88.7686 11.6849 88.9942 12.3406 88.9614 13.0094V16.7193H88.0781V15.7654C87.8588 16.1174 87.5417 16.3977 87.1654 16.572C86.7826 16.7613 86.3615 16.8601 85.9345 16.8609C85.3539 16.8849 84.7844 16.6965 84.3327 16.3309C84.1281 16.1583 83.9655 15.9413 83.8574 15.6964C83.7492 15.4514 83.6984 15.1851 83.7087 14.9176C83.7037 14.5409 83.8169 14.1722 84.0325 13.8634C84.2529 13.5496 84.554 13.3014 84.904 13.1449C85.2792 12.9741 85.6872 12.8877 86.0994 12.8918C86.7724 12.9021 87.4397 13.0173 88.0772 13.2334V13.0102C88.0912 12.5621 87.9586 12.1216 87.6994 11.7558C87.4475 11.4143 87.0235 11.2439 86.4274 11.2447C86.1405 11.2468 85.856 11.2965 85.5854 11.3918C85.2641 11.5051 84.9511 11.6409 84.6489 11.7982L84.2958 11.0798C84.9703 10.716 85.7203 10.5144 86.4863 10.4909C87.2961 10.4896 87.9111 10.7185 88.3314 11.1778ZM87.3314 15.7476C87.513 15.6503 87.6729 15.5172 87.8014 15.3563C87.93 15.1953 88.0245 15.0099 88.0792 14.8114V13.8809C87.4808 13.7158 86.8628 13.6326 86.2421 13.6336C85.8197 13.6211 85.4046 13.745 85.0583 13.9869C84.9084 14.0833 84.7852 14.2158 84.6997 14.3722C84.6143 14.5285 84.5695 14.7038 84.5694 14.882C84.5637 15.0523 84.6 15.2213 84.675 15.3743C84.7499 15.5273 84.8613 15.6595 84.9994 15.7594C85.3165 15.9849 85.6994 16.0989 86.0883 16.0834C86.5247 16.0843 86.9535 15.9687 87.3303 15.7485L87.3314 15.7476ZM94.6829 10.7842C95.0259 10.9779 95.306 11.2661 95.4898 11.6145C95.6876 11.9941 95.7869 12.4173 95.7787 12.8454V16.7202H94.8954V12.9631C94.9156 12.5174 94.7638 12.081 94.4714 11.744C94.3335 11.5916 94.1642 11.471 93.975 11.3907C93.7858 11.3104 93.5815 11.2722 93.3761 11.2789C93.0499 11.2763 92.7275 11.3489 92.4338 11.4909C92.1591 11.6191 91.9219 11.8158 91.7449 12.062C91.5801 12.2896 91.4915 12.5635 91.4918 12.8445V16.7193H90.6085V10.6311H91.4918V11.5969C91.6814 11.2586 91.9633 10.9812 92.3045 10.7969C92.669 10.598 93.0773 10.4927 93.4926 10.4907C93.9078 10.4886 94.3171 10.5898 94.6836 10.7851L94.6829 10.7842ZM96.7454 16.0254L100.338 11.4667H96.816V10.6311H101.527V11.326L97.9229 15.884H101.551V16.7202H96.7454V16.0254ZM107.681 10.6311V16.72H106.798V15.7556C106.608 16.0938 106.326 16.3713 105.985 16.5556C105.62 16.7545 105.212 16.8597 104.797 16.8618C104.381 16.8638 103.972 16.7627 103.606 16.5674C103.263 16.3737 102.983 16.0854 102.799 15.7369C102.601 15.3574 102.502 14.9342 102.51 14.5062V10.6311H103.393V14.3882C103.373 14.8339 103.525 15.2702 103.817 15.6071C103.955 15.7597 104.124 15.8803 104.314 15.9607C104.503 16.041 104.707 16.0792 104.913 16.0725C105.239 16.075 105.561 16.0025 105.855 15.8605C106.129 15.7321 106.367 15.5354 106.544 15.2891C106.709 15.0614 106.797 14.7873 106.797 14.506V10.6311H107.681ZM110.884 8.90468C111.062 9.00799 111.211 9.15566 111.315 9.33335C111.421 9.51117 111.476 9.71398 111.476 9.92057C111.476 10.1272 111.421 10.33 111.315 10.5078C111.211 10.686 111.062 10.8345 110.884 10.9391C110.705 11.0443 110.502 11.0998 110.294 11.0998C110.087 11.0998 109.884 11.0443 109.705 10.9391C109.527 10.8346 109.378 10.6861 109.273 10.5078C109.168 10.33 109.113 10.1272 109.113 9.92057C109.113 9.71398 109.168 9.51117 109.273 9.33335C109.378 9.15544 109.526 9.0076 109.705 8.90424C109.884 8.80062 110.087 8.74606 110.294 8.74606C110.501 8.74606 110.705 8.80062 110.884 8.90424V8.90468ZM110.802 10.7936C110.955 10.7065 111.082 10.5798 111.169 10.4269C111.258 10.2733 111.304 10.0988 111.302 9.92135C111.304 9.74419 111.257 9.57005 111.166 9.41779C111.077 9.26675 110.951 9.14127 110.799 9.05357C110.647 8.96458 110.473 8.91851 110.296 8.92024C110.119 8.91868 109.944 8.96472 109.79 9.05357C109.638 9.14075 109.51 9.26631 109.421 9.41779C109.332 9.57044 109.284 9.74418 109.284 9.92113C109.284 10.0981 109.332 10.2718 109.421 10.4245C109.511 10.5764 109.638 10.7028 109.79 10.7913C109.943 10.8818 110.118 10.929 110.296 10.9278C110.474 10.9292 110.649 10.8828 110.803 10.7934L110.802 10.7936ZM110.85 9.99068C110.795 10.0718 110.715 10.1331 110.623 10.1658L110.958 10.6445H110.599L110.292 10.2082H110.072V10.6445H109.712V9.20668H110.388C110.533 9.2001 110.674 9.24899 110.784 9.34335C110.834 9.38904 110.873 9.44512 110.899 9.50765C110.925 9.57018 110.937 9.63766 110.934 9.70535C110.937 9.80677 110.907 9.90634 110.85 9.99046V9.99068ZM110.071 9.85402H110.35C110.402 9.85633 110.454 9.84211 110.498 9.81335C110.516 9.80177 110.531 9.7858 110.541 9.76694C110.551 9.74807 110.556 9.72695 110.556 9.70557C110.556 9.68492 110.55 9.66462 110.54 9.64659C110.53 9.62855 110.516 9.61337 110.498 9.60246C110.454 9.57362 110.402 9.55932 110.35 9.56157H110.071V9.85402Z" fill="white"/>
<path d="M24.1454 15.9087L18.3643 23.1578L17.8885 22.1676L23.0765 15.6622L24.1454 15.9087ZM6.78206 22.1676L1.59428 15.6622L0.525391 15.9085L6.30628 23.1578L6.78206 22.1676Z" fill="white"/>
<path d="M0.181152 14.4018L2.24449 5.36157L3.10337 6.04446L1.25226 14.1556L0.181152 14.4018ZM24.49 14.4018L22.4256 5.36157L21.5676 6.04446L23.4189 14.1556L24.49 14.4018Z" fill="white"/>
<path d="M16.9713 23.8285H7.69979L8.17512 22.8392H16.496L16.9713 23.8285ZM21.4631 4.15272L13.1076 0.130493V1.22805L20.6033 4.83671L21.4631 4.15272ZM11.5627 1.22738L4.06867 4.83671L3.20801 4.15272L11.5636 0.130493L11.5627 1.22738Z" fill="white"/>
<path d="M16.4587 20.9641H8.21289L3.07178 14.5174L4.90667 6.47853L12.3369 2.90076L19.766 6.47853L21.6007 14.5174L16.4587 20.9641ZM8.68933 19.9748H15.9813L20.5282 14.273L18.906 7.16298L12.3369 3.99876L5.76511 7.16298L4.14289 14.273L8.68933 19.9748Z" fill="white"/>
</g>
<defs>
<clipPath id="clip0_457_1287">
<rect width="111.556" height="24" fill="white" transform="translate(0.0253906)"/>
</clipPath>
</defs>
</svg>
